UVM_SV/dump.vcd
$date
	Tue May  2 03:03:46 2023
$end
$version
	QuestaSim Version 2021.1
$end
$timescale
	100ps
$end

$scope module uvm_root $end
$upscope $end

$scope module ATM_UVM $end

$scope module DUT $end
$var parameter 32 ! P_WIDTH $end
$var parameter 32 " B_WIDTH $end
$var parameter 32 # C_WIDTH $end
$var wire 1 $ clk $end
$var wire 1 % rst $end
$var wire 1 & card_number [5] $end
$var wire 1 ' card_number [4] $end
$var wire 1 ( card_number [3] $end
$var wire 1 ) card_number [2] $end
$var wire 1 * card_number [1] $end
$var wire 1 + card_number [0] $end
$var wire 1 , card_in $end
$var wire 1 - button_0 $end
$var wire 1 . button_1 $end
$var wire 1 / button_2 $end
$var wire 1 0 button_3 $end
$var wire 1 1 button_4 $end
$var wire 1 2 button_5 $end
$var wire 1 3 button_6 $end
$var wire 1 4 button_7 $end
$var wire 1 5 button_8 $end
$var wire 1 6 button_9 $end
$var wire 1 7 enter_button $end
$var wire 1 8 cancel_button $end
$var wire 1 9 withdraw_button $end
$var wire 1 : deposit_button $end
$var wire 1 ; show_balance $end
$var wire 1 < another_service $end
$var wire 1 = English_button $end
$var wire 1 > Arabic_button $end
$var wire 1 ? multiple_100_button $end
$var wire 1 @ multiple_1000_button $end
$var wire 1 A actual_deposit_value [19] $end
$var wire 1 B actual_deposit_value [18] $end
$var wire 1 C actual_deposit_value [17] $end
$var wire 1 D actual_deposit_value [16] $end
$var wire 1 E actual_deposit_value [15] $end
$var wire 1 F actual_deposit_value [14] $end
$var wire 1 G actual_deposit_value [13] $end
$var wire 1 H actual_deposit_value [12] $end
$var wire 1 I actual_deposit_value [11] $end
$var wire 1 J actual_deposit_value [10] $end
$var wire 1 K actual_deposit_value [9] $end
$var wire 1 L actual_deposit_value [8] $end
$var wire 1 M actual_deposit_value [7] $end
$var wire 1 N actual_deposit_value [6] $end
$var wire 1 O actual_deposit_value [5] $end
$var wire 1 P actual_deposit_value [4] $end
$var wire 1 Q actual_deposit_value [3] $end
$var wire 1 R actual_deposit_value [2] $end
$var wire 1 S actual_deposit_value [1] $end
$var wire 1 T actual_deposit_value [0] $end
$var wire 1 U threshold [31] $end
$var wire 1 V threshold [30] $end
$var wire 1 W threshold [29] $end
$var wire 1 X threshold [28] $end
$var wire 1 Y threshold [27] $end
$var wire 1 Z threshold [26] $end
$var wire 1 [ threshold [25] $end
$var wire 1 \ threshold [24] $end
$var wire 1 ] threshold [23] $end
$var wire 1 ^ threshold [22] $end
$var wire 1 _ threshold [21] $end
$var wire 1 ` threshold [20] $end
$var wire 1 a threshold [19] $end
$var wire 1 b threshold [18] $end
$var wire 1 c threshold [17] $end
$var wire 1 d threshold [16] $end
$var wire 1 e threshold [15] $end
$var wire 1 f threshold [14] $end
$var wire 1 g threshold [13] $end
$var wire 1 h threshold [12] $end
$var wire 1 i threshold [11] $end
$var wire 1 j threshold [10] $end
$var wire 1 k threshold [9] $end
$var wire 1 l threshold [8] $end
$var wire 1 m threshold [7] $end
$var wire 1 n threshold [6] $end
$var wire 1 o threshold [5] $end
$var wire 1 p threshold [4] $end
$var wire 1 q threshold [3] $end
$var wire 1 r threshold [2] $end
$var wire 1 s threshold [1] $end
$var wire 1 t threshold [0] $end
$var wire 1 u card_out $end
$var wire 1 v updated_balance [19] $end
$var wire 1 w updated_balance [18] $end
$var wire 1 x updated_balance [17] $end
$var wire 1 y updated_balance [16] $end
$var wire 1 z updated_balance [15] $end
$var wire 1 { updated_balance [14] $end
$var wire 1 | updated_balance [13] $end
$var wire 1 } updated_balance [12] $end
$var wire 1 ~ updated_balance [11] $end
$var wire 1 !! updated_balance [10] $end
$var wire 1 "! updated_balance [9] $end
$var wire 1 #! updated_balance [8] $end
$var wire 1 $! updated_balance [7] $end
$var wire 1 %! updated_balance [6] $end
$var wire 1 &! updated_balance [5] $end
$var wire 1 '! updated_balance [4] $end
$var wire 1 (! updated_balance [3] $end
$var wire 1 )! updated_balance [2] $end
$var wire 1 *! updated_balance [1] $end
$var wire 1 +! updated_balance [0] $end
$var wire 1 ,! operation_done $end
$var wire 1 -! error $end
$var wire 1 .! wrong_password $end
$var wire 1 /! entry_value [19] $end
$var wire 1 0! entry_value [18] $end
$var wire 1 1! entry_value [17] $end
$var wire 1 2! entry_value [16] $end
$var wire 1 3! entry_value [15] $end
$var wire 1 4! entry_value [14] $end
$var wire 1 5! entry_value [13] $end
$var wire 1 6! entry_value [12] $end
$var wire 1 7! entry_value [11] $end
$var wire 1 8! entry_value [10] $end
$var wire 1 9! entry_value [9] $end
$var wire 1 :! entry_value [8] $end
$var wire 1 ;! entry_value [7] $end
$var wire 1 <! entry_value [6] $end
$var wire 1 =! entry_value [5] $end
$var wire 1 >! entry_value [4] $end
$var wire 1 ?! entry_value [3] $end
$var wire 1 @! entry_value [2] $end
$var wire 1 A! entry_value [1] $end
$var wire 1 B! entry_value [0] $end
$var wire 1 C! password [15] $end
$var wire 1 D! password [14] $end
$var wire 1 E! password [13] $end
$var wire 1 F! password [12] $end
$var wire 1 G! password [11] $end
$var wire 1 H! password [10] $end
$var wire 1 I! password [9] $end
$var wire 1 J! password [8] $end
$var wire 1 K! password [7] $end
$var wire 1 L! password [6] $end
$var wire 1 M! password [5] $end
$var wire 1 N! password [4] $end
$var wire 1 O! password [3] $end
$var wire 1 P! password [2] $end
$var wire 1 Q! password [1] $end
$var wire 1 R! password [0] $end
$var wire 1 S! balance [19] $end
$var wire 1 T! balance [18] $end
$var wire 1 U! balance [17] $end
$var wire 1 V! balance [16] $end
$var wire 1 W! balance [15] $end
$var wire 1 X! balance [14] $end
$var wire 1 Y! balance [13] $end
$var wire 1 Z! balance [12] $end
$var wire 1 [! balance [11] $end
$var wire 1 \! balance [10] $end
$var wire 1 ]! balance [9] $end
$var wire 1 ^! balance [8] $end
$var wire 1 _! balance [7] $end
$var wire 1 `! balance [6] $end
$var wire 1 a! balance [5] $end
$var wire 1 b! balance [4] $end
$var wire 1 c! balance [3] $end
$var wire 1 d! balance [2] $end
$var wire 1 e! balance [1] $end
$var wire 1 f! balance [0] $end
$var wire 1 g! pass_en $end
$var wire 1 h! in_password [15] $end
$var wire 1 i! in_password [14] $end
$var wire 1 j! in_password [13] $end
$var wire 1 k! in_password [12] $end
$var wire 1 l! in_password [11] $end
$var wire 1 m! in_password [10] $end
$var wire 1 n! in_password [9] $end
$var wire 1 o! in_password [8] $end
$var wire 1 p! in_password [7] $end
$var wire 1 q! in_password [6] $end
$var wire 1 r! in_password [5] $end
$var wire 1 s! in_password [4] $end
$var wire 1 t! in_password [3] $end
$var wire 1 u! in_password [2] $end
$var wire 1 v! in_password [1] $end
$var wire 1 w! in_password [0] $end
$var wire 1 x! operation [1] $end
$var wire 1 y! operation [0] $end
$var wire 1 z! time_out $end
$var wire 1 {! start_timer $end
$var wire 1 |! restart_timer $end
$var wire 1 }! language [1] $end
$var wire 1 ~! language [0] $end
$var wire 1 !" correct_button $end

$scope module U0_card_handling $end
$var parameter 32 "" C_WIDTH $end
$var parameter 32 #" P_WIDTH $end
$var parameter 32 $" B_WIDTH $end
$var parameter 32 %" USERS_NUM $end
$var wire 1 $ clk $end
$var wire 1 % rst $end
$var wire 1 & card_number [5] $end
$var wire 1 ' card_number [4] $end
$var wire 1 ( card_number [3] $end
$var wire 1 ) card_number [2] $end
$var wire 1 * card_number [1] $end
$var wire 1 + card_number [0] $end
$var wire 1 , card_in $end
$var wire 1 u card_out $end
$var wire 1 ,! operation_done $end
$var wire 1 v updated_balance [19] $end
$var wire 1 w updated_balance [18] $end
$var wire 1 x updated_balance [17] $end
$var wire 1 y updated_balance [16] $end
$var wire 1 z updated_balance [15] $end
$var wire 1 { updated_balance [14] $end
$var wire 1 | updated_balance [13] $end
$var wire 1 } updated_balance [12] $end
$var wire 1 ~ updated_balance [11] $end
$var wire 1 !! updated_balance [10] $end
$var wire 1 "! updated_balance [9] $end
$var wire 1 #! updated_balance [8] $end
$var wire 1 $! updated_balance [7] $end
$var wire 1 %! updated_balance [6] $end
$var wire 1 &! updated_balance [5] $end
$var wire 1 '! updated_balance [4] $end
$var wire 1 (! updated_balance [3] $end
$var wire 1 )! updated_balance [2] $end
$var wire 1 *! updated_balance [1] $end
$var wire 1 +! updated_balance [0] $end
$var reg 16 &" password [15:0] $end
$var reg 20 '" balance [19:0] $end
$var reg 1 (" pass_en $end
$upscope $end

$scope module U0_user_interface $end
$var parameter 32 )" P_WIDTH $end
$var parameter 32 *" B_WIDTH $end
$var wire 1 $ clk $end
$var wire 1 % rst $end
$var wire 1 , card_in $end
$var wire 1 - button_0 $end
$var wire 1 . button_1 $end
$var wire 1 / button_2 $end
$var wire 1 0 button_3 $end
$var wire 1 1 button_4 $end
$var wire 1 2 button_5 $end
$var wire 1 3 button_6 $end
$var wire 1 4 button_7 $end
$var wire 1 5 button_8 $end
$var wire 1 6 button_9 $end
$var wire 1 7 enter_button $end
$var wire 1 8 cancel_button $end
$var wire 1 ? multiple_100_button $end
$var wire 1 @ multiple_1000_button $end
$var wire 1 9 withdraw_button $end
$var wire 1 : deposit_button $end
$var wire 1 ; show_balance $end
$var wire 1 < another_service $end
$var wire 1 = English_button $end
$var wire 1 > Arabic_button $end
$var reg 20 +" entry_value [19:0] $end
$var reg 16 ," in_password [15:0] $end
$var reg 2 -" operation [1:0] $end
$var reg 2 ." language [1:0] $end
$var reg 2 /" count [1:0] $end
$var reg 4 0" temp1 [3:0] $end
$var reg 4 1" temp2 [3:0] $end
$var reg 4 2" temp3 [3:0] $end
$var reg 4 3" temp4 [3:0] $end
$var reg 16 4" in_password_temp [15:0] $end
$var reg 20 5" entry_value_temp [19:0] $end
$var reg 1 6" withdraw_hold $end
$var reg 1 7" withdraw_100_hold $end
$var reg 1 8" withdraw_1000_hold $end
$upscope $end

$scope module U0_timer $end
$var wire 1 $ clk $end
$var wire 1 % rst $end
$var wire 1 {! start $end
$var wire 1 |! restart $end
$var wire 1 U threshold [31] $end
$var wire 1 V threshold [30] $end
$var wire 1 W threshold [29] $end
$var wire 1 X threshold [28] $end
$var wire 1 Y threshold [27] $end
$var wire 1 Z threshold [26] $end
$var wire 1 [ threshold [25] $end
$var wire 1 \ threshold [24] $end
$var wire 1 ] threshold [23] $end
$var wire 1 ^ threshold [22] $end
$var wire 1 _ threshold [21] $end
$var wire 1 ` threshold [20] $end
$var wire 1 a threshold [19] $end
$var wire 1 b threshold [18] $end
$var wire 1 c threshold [17] $end
$var wire 1 d threshold [16] $end
$var wire 1 e threshold [15] $end
$var wire 1 f threshold [14] $end
$var wire 1 g threshold [13] $end
$var wire 1 h threshold [12] $end
$var wire 1 i threshold [11] $end
$var wire 1 j threshold [10] $end
$var wire 1 k threshold [9] $end
$var wire 1 l threshold [8] $end
$var wire 1 m threshold [7] $end
$var wire 1 n threshold [6] $end
$var wire 1 o threshold [5] $end
$var wire 1 p threshold [4] $end
$var wire 1 q threshold [3] $end
$var wire 1 r threshold [2] $end
$var wire 1 s threshold [1] $end
$var wire 1 t threshold [0] $end
$var reg 1 9" time_out $end
$var reg 32 :" counter [31:0] $end
$upscope $end

$scope module U0_ATM_FSM $end
$var parameter 32 ;" P_WIDTH $end
$var parameter 32 <" B_WIDTH $end
$var parameter 4 =" IDLE $end
$var parameter 4 >" LANGUAGE $end
$var parameter 4 ?" WRITE_PASS $end
$var parameter 4 @" CHECK_PASS $end
$var parameter 4 A" OPERATION $end
$var parameter 4 B" WRITE_WITHDRAW $end
$var parameter 4 C" WITHDRAW $end
$var parameter 4 D" WRITE_DEPOSIT $end
$var parameter 4 E" DEPOSIT $end
$var parameter 4 F" BALANCE $end
$var wire 1 $ clk $end
$var wire 1 % rst $end
$var wire 1 z! time_out $end
$var wire 1 C! user_password [15] $end
$var wire 1 D! user_password [14] $end
$var wire 1 E! user_password [13] $end
$var wire 1 F! user_password [12] $end
$var wire 1 G! user_password [11] $end
$var wire 1 H! user_password [10] $end
$var wire 1 I! user_password [9] $end
$var wire 1 J! user_password [8] $end
$var wire 1 K! user_password [7] $end
$var wire 1 L! user_password [6] $end
$var wire 1 M! user_password [5] $end
$var wire 1 N! user_password [4] $end
$var wire 1 O! user_password [3] $end
$var wire 1 P! user_password [2] $end
$var wire 1 Q! user_password [1] $end
$var wire 1 R! user_password [0] $end
$var wire 1 S! current_balance [19] $end
$var wire 1 T! current_balance [18] $end
$var wire 1 U! current_balance [17] $end
$var wire 1 V! current_balance [16] $end
$var wire 1 W! current_balance [15] $end
$var wire 1 X! current_balance [14] $end
$var wire 1 Y! current_balance [13] $end
$var wire 1 Z! current_balance [12] $end
$var wire 1 [! current_balance [11] $end
$var wire 1 \! current_balance [10] $end
$var wire 1 ]! current_balance [9] $end
$var wire 1 ^! current_balance [8] $end
$var wire 1 _! current_balance [7] $end
$var wire 1 `! current_balance [6] $end
$var wire 1 a! current_balance [5] $end
$var wire 1 b! current_balance [4] $end
$var wire 1 c! current_balance [3] $end
$var wire 1 d! current_balance [2] $end
$var wire 1 e! current_balance [1] $end
$var wire 1 f! current_balance [0] $end
$var wire 1 g! pass_en $end
$var wire 1 h! in_password [15] $end
$var wire 1 i! in_password [14] $end
$var wire 1 j! in_password [13] $end
$var wire 1 k! in_password [12] $end
$var wire 1 l! in_password [11] $end
$var wire 1 m! in_password [10] $end
$var wire 1 n! in_password [9] $end
$var wire 1 o! in_password [8] $end
$var wire 1 p! in_password [7] $end
$var wire 1 q! in_password [6] $end
$var wire 1 r! in_password [5] $end
$var wire 1 s! in_password [4] $end
$var wire 1 t! in_password [3] $end
$var wire 1 u! in_password [2] $end
$var wire 1 v! in_password [1] $end
$var wire 1 w! in_password [0] $end
$var wire 1 7 enter_button $end
$var wire 1 8 cancel_button $end
$var wire 1 !" correction_button $end
$var wire 1 < another_service $end
$var wire 1 }! language [1] $end
$var wire 1 ~! language [0] $end
$var wire 1 x! operation [1] $end
$var wire 1 y! operation [0] $end
$var wire 1 A actual_deposit_value [19] $end
$var wire 1 B actual_deposit_value [18] $end
$var wire 1 C actual_deposit_value [17] $end
$var wire 1 D actual_deposit_value [16] $end
$var wire 1 E actual_deposit_value [15] $end
$var wire 1 F actual_deposit_value [14] $end
$var wire 1 G actual_deposit_value [13] $end
$var wire 1 H actual_deposit_value [12] $end
$var wire 1 I actual_deposit_value [11] $end
$var wire 1 J actual_deposit_value [10] $end
$var wire 1 K actual_deposit_value [9] $end
$var wire 1 L actual_deposit_value [8] $end
$var wire 1 M actual_deposit_value [7] $end
$var wire 1 N actual_deposit_value [6] $end
$var wire 1 O actual_deposit_value [5] $end
$var wire 1 P actual_deposit_value [4] $end
$var wire 1 Q actual_deposit_value [3] $end
$var wire 1 R actual_deposit_value [2] $end
$var wire 1 S actual_deposit_value [1] $end
$var wire 1 T actual_deposit_value [0] $end
$var wire 1 /! entry_value [19] $end
$var wire 1 0! entry_value [18] $end
$var wire 1 1! entry_value [17] $end
$var wire 1 2! entry_value [16] $end
$var wire 1 3! entry_value [15] $end
$var wire 1 4! entry_value [14] $end
$var wire 1 5! entry_value [13] $end
$var wire 1 6! entry_value [12] $end
$var wire 1 7! entry_value [11] $end
$var wire 1 8! entry_value [10] $end
$var wire 1 9! entry_value [9] $end
$var wire 1 :! entry_value [8] $end
$var wire 1 ;! entry_value [7] $end
$var wire 1 <! entry_value [6] $end
$var wire 1 =! entry_value [5] $end
$var wire 1 >! entry_value [4] $end
$var wire 1 ?! entry_value [3] $end
$var wire 1 @! entry_value [2] $end
$var wire 1 A! entry_value [1] $end
$var wire 1 B! entry_value [0] $end
$var reg 20 G" updated_balance [19:0] $end
$var reg 1 H" wrong_password $end
$var reg 1 I" operation_done $end
$var reg 1 J" error $end
$var reg 1 K" start_timer $end
$var wire 1 |! restart_timer $end
$var reg 1 L" card_out $end
$var reg 4 M" current_state [3:0] $end
$var reg 4 N" next_state [3:0] $end
$var reg 20 O" updated_balance_comb [19:0] $end
$var reg 2 P" error_count [1:0] $end
$var reg 2 Q" error_count_reg [1:0] $end
$upscope $end
$upscope $end
$upscope $end

$scope begin uvm_pkg $end
$var parameter 32 R" UVM_HDL_MAX_WIDTH $end
$var parameter 32 S" UVM_STREAMBITS $end
$var parameter 32 T" UVM_RADIX $end
$var parameter 32 U" UVM_MACRO_NUMFLAGS $end
$var parameter 32 V" UVM_DEFAULT $end
$var parameter 32 W" UVM_ALL_ON $end
$var parameter 32 X" UVM_FLAGS_ON $end
$var parameter 32 Y" UVM_FLAGS_OFF $end
$var parameter 32 Z" UVM_COPY $end
$var parameter 32 [" UVM_NOCOPY $end
$var parameter 32 \" UVM_COMPARE $end
$var parameter 32 ]" UVM_NOCOMPARE $end
$var parameter 32 ^" UVM_PRINT $end
$var parameter 32 _" UVM_NOPRINT $end
$var parameter 32 `" UVM_RECORD $end
$var parameter 32 a" UVM_NORECORD $end
$var parameter 32 b" UVM_PACK $end
$var parameter 32 c" UVM_NOPACK $end
$var parameter 32 d" UVM_PHYSICAL $end
$var parameter 32 e" UVM_ABSTRACT $end
$var parameter 32 f" UVM_READONLY $end
$var parameter 32 g" UVM_NODEFPRINT $end
$var parameter 32 h" UVM_MACRO_EXTRAS $end
$var parameter 32 i" UVM_FLAGS $end
$var parameter 32 j" UVM_UNPACK $end
$var parameter 32 k" UVM_CHECK_FIELDS $end
$var parameter 32 l" UVM_END_DATA_EXTRA $end
$var parameter 32 m" UVM_START_FUNCS $end
$var parameter 32 n" UVM_SET $end
$var parameter 32 o" UVM_SETINT $end
$var parameter 32 p" UVM_SETOBJ $end
$var parameter 32 q" UVM_SETSTR $end
$var parameter 32 r" UVM_END_FUNCS $end
$var parameter 32 s" UVM_STR_CRC_POLYNOMIAL $end
$var parameter 32 t" UVM_STDOUT $end
$var parameter 32 u" UVM_LINE_WIDTH $end
$var parameter 32 v" UVM_NUM_LINES $end
$var parameter 32 w" UVM_SMALL_STRING $end
$var parameter 32 x" UVM_LARGE_STRING $end
$var reg 1 y" uvm_start_uvm_declarations $end
$var integer 32 z" uvm_global_random_seed $end
$var integer 32 {" UVM_UNBOUNDED_CONNECTIONS $end

$scope function uvm_hdl_check_path $end
$var integer 32 |" uvm_hdl_check_path $end
$upscope $end

$scope function uvm_hdl_deposit $end
$var integer 32 }" uvm_hdl_deposit $end
$var reg 1024 ~" value [1023:0] $end
$upscope $end

$scope function uvm_hdl_force $end
$var integer 32 !# uvm_hdl_force $end
$var reg 1024 "# value [1023:0] $end
$upscope $end

$scope task uvm_hdl_force_time $end
$var reg 1024 ## value [1023:0] $end
$var time 64 $# force_time $end
$upscope $end

$scope function uvm_hdl_release_and_read $end
$var integer 32 %# uvm_hdl_release_and_read $end
$var reg 1024 &# value [1023:0] $end
$upscope $end

$scope function uvm_hdl_release $end
$var integer 32 '# uvm_hdl_release $end
$upscope $end

$scope function uvm_hdl_read $end
$var integer 32 (# uvm_hdl_read $end
$var reg 1024 )# value [1023:0] $end
$upscope $end

$scope function uvm_dpi_get_next_arg_c $end
$upscope $end

$scope function uvm_dpi_get_tool_name_c $end
$upscope $end

$scope function uvm_dpi_get_tool_version_c $end
$upscope $end

$scope function uvm_dpi_get_next_arg $end
$upscope $end

$scope function uvm_dpi_get_tool_name $end
$upscope $end

$scope function uvm_dpi_get_tool_version $end
$upscope $end

$scope function uvm_dpi_regcomp $end
$upscope $end

$scope function uvm_dpi_regexec $end
$var integer 32 *# uvm_dpi_regexec $end
$upscope $end

$scope function uvm_dpi_regfree $end
$upscope $end

$scope function uvm_re_match $end
$var integer 32 +# uvm_re_match $end
$upscope $end

$scope function uvm_dump_re_cache $end
$upscope $end

$scope function uvm_glob_to_re $end
$upscope $end

$scope function uvm_revision_string $end
$upscope $end

$scope function uvm_radix_to_string $end
$var integer 32 ,# radix $end
$upscope $end

$scope function uvm_instance_scope $end
$var reg 8 -# c [7:0] $end
$var integer 32 .# pos $end
$upscope $end

$scope function uvm_oneway_hash $end
$var integer 32 /# uvm_oneway_hash $end
$var integer 32 0# seed $end
$var reg 1 1# msb $end
$var reg 8 2# current_byte [7:0] $end
$var reg 32 3# crc1 [31:0] $end
$upscope $end

$scope function uvm_create_random_seed $end
$var integer 32 4# uvm_create_random_seed $end
$upscope $end

$scope function uvm_object_value_str $end
$upscope $end

$scope function uvm_leaf_scope $end
$var reg 8 5# scope_separator [7:0] $end
$var reg 8 6# bracket_match [7:0] $end
$var integer 32 7# pos $end
$var integer 32 8# bmatches $end
$upscope $end

$scope function uvm_vector_to_string $end
$var reg 4096 9# value [4095:0] $end
$var integer 32 :# size $end
$var integer 32 ;# radix $end
$upscope $end

$scope function uvm_get_array_index_int $end
$var integer 32 <# uvm_get_array_index_int $end
$var reg 1 =# is_wildcard $end
$var integer 32 ># i $end
$upscope $end

$scope function uvm_get_array_index_string $end
$var reg 1 ?# is_wildcard $end
$var integer 32 @# i $end
$upscope $end

$scope function uvm_is_array $end
$var reg 1 A# uvm_is_array $end
$upscope $end

$scope function uvm_has_wildcard $end
$upscope $end

$scope task run_test $end
$upscope $end

$scope function global_stop_request $end
$upscope $end

$scope function set_global_timeout $end
$var time 64 B# timeout $end
$var reg 1 C# overridable $end
$upscope $end

$scope function set_global_stop_timeout $end
$var time 64 D# timeout $end
$upscope $end

$scope function uvm_report_enabled $end
$var reg 1 E# uvm_report_enabled $end
$var integer 32 F# verbosity $end
$var reg 2 G# severity [1:0] $end
$upscope $end

$scope function uvm_report $end
$var reg 2 H# severity [1:0] $end
$var integer 32 I# verbosity $end
$var integer 32 J# line $end
$upscope $end

$scope function uvm_report_info $end
$var integer 32 K# verbosity $end
$var integer 32 L# line $end
$upscope $end

$scope function uvm_report_warning $end
$var integer 32 M# verbosity $end
$var integer 32 N# line $end
$upscope $end

$scope function uvm_report_error $end
$var integer 32 O# verbosity $end
$var integer 32 P# line $end
$upscope $end

$scope function uvm_report_fatal $end
$var integer 32 Q# verbosity $end
$var integer 32 R# line $end
$upscope $end

$scope function uvm_string_to_severity $end
$var reg 1 S# uvm_string_to_severity $end
$var reg 2 T# sev [1:0] $end
$upscope $end

$scope function uvm_string_to_action $end
$upscope $end

$scope function set_config_int $end
$var reg 4096 U# value [4095:0] $end
$upscope $end

$scope function set_config_object $end
$var reg 1 V# clone $end
$upscope $end

$scope function set_config_string $end
$upscope $end

$scope function uvm_is_match $end
$var reg 1 W# uvm_is_match $end
$upscope $end

$scope function uvm_string_to_bits $end
$var reg 115200 X# uvm_string_to_bits [115199:0] $end
$upscope $end

$scope function uvm_bits_to_string $end
$var reg 115200 Y# str [115199:0] $end
$upscope $end

$scope task uvm_wait_for_nba_region $end
$var integer 32 Z# nba $end
$var integer 32 [# next_nba $end
$upscope $end

$scope function uvm_split_string $end
$upscope $end

$scope function uvm_hdl_concat2string $end
$upscope $end
$upscope $end

$scope begin ATM_UVM_sv_unit $end
$upscope $end

$scope begin questa_uvm_pkg $end
$upscope $end

$scope begin std $end
$upscope $end
$enddefinitions $end
#0
$dumpvars
0=#
0?#
0A#
0S#
b0 T#
bx X#
bx Y#
bx ~"
bx "#
bx ##
bx &#
bx )#
1y"
01#
b1100100 2#
b11010010000100100100001000111110 3#
bx 9#
0C#
0E#
b0 G#
b0 H#
bx U#
0V#
0W#
b0 &"
b0 '"
0("
b0 +"
b0 ,"
b11 -"
b0 ."
b0 /"
b0 0"
b0 1"
b0 2"
b0 3"
b0 4"
b0 5"
06"
07"
08"
09"
b0 :"
b0 G"
0H"
0I"
0J"
0K"
0L"
b0 M"
b0 N"
b0 O"
b0 P"
b0 Q"
b10000000000 R"
b1000000000000 S"
b1111000000000000000000000000 T"
b10001 U"
b10101010101 V"
b101010101 W"
b101010101 X"
b0 Y"
b1 Z"
b10 ["
b100 \"
b1000 ]"
b10000 ^"
b100000 _"
b1000000 `"
b10000000 a"
b100000000 b"
b1000000000 c"
b10000000000000 d"
b100000000000000 e"
b1000000000000000 f"
b10000000000000000 g"
b100000000000000000 h"
b100000000000000001 i"
b100000000000000010 j"
b100000000000000011 k"
b100000000000000100 l"
b100000000000000101 m"
b100000000000000110 n"
b100000000000000110 o"
b100000000000000111 p"
b100000000000001000 q"
b100000000000001000 r"
b100110000010001110110110110 s"
b1 t"
b1111000 u"
b1111000 v"
b1110111111 w"
b11100000111111111 x"
b10000 !
b10100 "
b110 #
b110 ""
b10000 #"
b10100 $"
b1010 %"
b10000 )"
b10100 *"
b10000 ;"
b10100 <"
b0 ="
b1 >"
b10 ?"
b11 @"
b100 A"
b101 B"
b110 C"
b111 D"
b1000 E"
b1001 F"
b0 ,#
b0 5#
b0 6#
b0 7#
b0 8#
b0 <#
b0 >#
b0 @#
b0 |"
b0 }"
b0 !#
b0 %#
b0 '#
b0 (#
b1 *#
b0 +#
b1101001011000001111100000011110 z"
b101110 -#
b111 .#
b101011000111101110010101001011 /#
b1101001011000001111100000011110 0#
b11000001110011110010000010100010 4#
b0 :#
b0 ;#
b111110100 F#
b0 I#
b0 J#
b11001000 K#
b100010110 L#
b0 M#
b0 N#
b0 O#
b0 P#
b0 Q#
b0 R#
b100011 Z#
b100011 [#
b11111111111111111111111111111111 {"
bx $#
bx B#
bx D#
1t
1s
1r
1q
0p
0o
0n
0m
0l
0k
0j
0i
0h
0g
0f
0e
0d
0c
0b
0a
0`
0_
0^
0]
0\
0[
0Z
0Y
0X
0W
0V
0U
0T
0S
0R
0Q
0P
0O
0N
0M
0L
0K
0J
0I
0H
0G
0F
0E
0D
0C
0B
0A
0@
0?
0>
0=
0<
0;
0:
09
08
07
06
05
04
03
02
01
00
0/
0.
0-
0,
0+
0*
0)
0(
0'
0&
0%
0$
0+!
0*!
0)!
0(!
0'!
0&!
0%!
0$!
0#!
0"!
0!!
0~
0}
0|
0{
0z
0y
0x
0w
0v
0.!
0,!
0-!
0u
0B!
0A!
0@!
0?!
0>!
0=!
0<!
0;!
0:!
09!
08!
07!
06!
05!
04!
03!
02!
01!
00!
0/!
0R!
0Q!
0P!
0O!
0N!
0M!
0L!
0K!
0J!
0I!
0H!
0G!
0F!
0E!
0D!
0C!
0f!
0e!
0d!
0c!
0b!
0a!
0`!
0_!
0^!
0]!
0\!
0[!
0Z!
0Y!
0X!
0W!
0V!
0U!
0T!
0S!
0g!
0w!
0v!
0u!
0t!
0s!
0r!
0q!
0p!
0o!
0n!
0m!
0l!
0k!
0j!
0i!
0h!
1y!
1x!
0z!
0{!
0|!
0~!
0}!
z!"
$end
#50
1$
#100
0$
1%
#150
1$
#200
0$
0%
#250
1$
#300
0$
b100100 [#
1%
b100100 Z#
#350
1$
#400
0$
#450
1$
#500
1,
0$
#550
1$
b11001101110000 &"
b100010011000 '"
1("
1c!
1b!
1_!
1[!
1N!
1M!
1L!
1J!
1I!
1F!
1E!
1g!
b1 N"
#600
0,
0$
#650
1$
b1 M"
b100010011000 G"
0("
1(!
1'!
1$!
1~
0g!
b100010011000 O"
1K"
1{!
#700
0$
#750
1$
b1 :"
#800
1>
0$
b10 ."
1}!
1|!
b10 N"
#850
1$
b10 M"
b0 :"
#900
0>
0$
b0 ."
0}!
0|!
#950
1$
b1 :"
#1000
0$
#1050
1$
b10 :"
#1100
10
0$
#1150
1$
b11 0"
b1 /"
b11 :"
#1200
0$
#1250
1$
b100 :"
b11 1"
b10 /"
#1300
00
14
0$
#1350
1$
b111 2"
b11 /"
b101 :"
#1400
1-
04
0$
#1450
1$
b110 :"
b0 /"
#1500
0-
17
0$
1|!
b11 N"
b11001101110000 4"
#1550
1$
b11001101110000 ,"
b11 M"
b0 :"
1s!
1r!
1q!
1o!
1n!
1k!
1j!
0K"
b100 N"
0{!
#1600
07
0$
0|!
#1650
1$
b100 M"
1K"
1{!
#1700
0$
#1750
1$
b1 :"
#1800
0$
#1850
1$
b10 :"
#1900
19
0$
16"
b0 -"
0y!
0x!
1|!
b101 N"
#1950
1$
b101 M"
b0 :"
#2000
09
0$
b11 -"
1y!
1x!
0|!
#2050
1$
b1 :"
#2100
1?
0$
17"
#2150
1$
b10 :"
#2200
0?
0$
#2250
1$
b11 :"
#2300
11
0$
b110010000 5"
07"
06"
#2350
1$
b110010000 +"
b100 0"
b1 /"
b100 :"
1>!
1;!
1:!
#2400
01
17
0$
1|!
b110 N"
b100001101110000 4"
#2450
1$
b110 M"
b0 :"
b100001101110000 ,"
0k!
0j!
1i!
b11100001000 O"
1I"
1,!
#2500
07
0$
0|!
#2550
1$
b11100001000 G"
b1 :"
0'!
0$!
1#!
1"!
1!!
0~
#2600
0$
#2650
1$
b10 :"
#2700
0$
#2750
1$
b11 :"
#2800
18
0$
b0 N"
1L"
1u
#2850
1$
b0 M"
b100 :"
0I"
0K"
0L"
0,!
0{!
0u
#2900
08
0$
#2950
1$
b0 :"
#3000
0$
#3050
1$
#3100
0$
#3150
1$
#3200
1+
0$
#3250
1$
#3300
1,
0$
#3350
1$
b11010100000110 &"
b1100001101010000 '"
1("
b0 /"
0c!
1`!
0_!
1^!
1]!
0[!
1X!
1W!
1Q!
1P!
0N!
0M!
0L!
0I!
1H!
1g!
b1 N"
#3400
0,
0$
#3450
1$
b1 M"
b1100001101010000 G"
0("
0(!
1'!
1%!
0!!
1{
1z
0g!
b1100001101010000 O"
1K"
1{!
#3500
0$
#3550
1$
b1 :"
#3600
1=
0$
b1 ."
1~!
1|!
b10 N"
#3650
1$
b10 M"
b0 :"
#3700
0=
0$
b0 ."
0~!
0|!
#3750
1$
b1 :"
#3800
0$
#3850
1$
b10 :"
#3900
10
0$
#3950
1$
b11 0"
b1 /"
b11 :"
#4000
00
12
0$
#4050
1$
b100 :"
b101 1"
b10 /"
#4100
1-
02
0$
#4150
1$
b0 2"
b11 /"
b101 :"
#4200
0-
13
0$
#4250
1$
b110 :"
b110 3"
b0 /"
